%YAML 1.1
%TAG !u! tag:unity3d.com,2011:
--- !u!114 &11400000
MonoBehaviour:
  m_ObjectHideFlags: 0
  m_CorrespondingSourceObject: {fileID: 0}
  m_PrefabInstance: {fileID: 0}
  m_PrefabAsset: {fileID: 0}
  m_GameObject: {fileID: 0}
  m_Enabled: 1
  m_EditorHideFlags: 0
  m_Script: {fileID: 11500000, guid: 29b8f47e24524b74dafba7f7db8c3fb6, type: 3}
  m_Name: seq2ye
  m_EditorClassIdentifier: 
  statements:
  - speakerName: 
    statement: Weeeeeeeeeeeeeeeeeeeeeellll heeeeeeeeeeck
  - speakerName: 
    statement: Glad it works. Load da next scene then.
  dialogActions: []
